/*!
  * pinia v0.0.5
  * (c) 2020 Eduardo San Martin Morote
  * @license MIT
  */

/*!
 * Vue.js v2.6.11
 * (c) 2014-2019 Evan You
 * Released under the MIT License.
 */

/*!
 * vue-i18n v8.15.4 
 * (c) 2020 kazuya kawaguchi
 * Released under the MIT License.
 */

/*! *****************************************************************************
Copyright (c) Microsoft Corporation. All rights reserved.
Licensed under the Apache License, Version 2.0 (the "License"); you may not use
this file except in compliance with the License. You may obtain a copy of the
License at http://www.apache.org/licenses/LICENSE-2.0

THIS CODE IS PROVIDED ON AN *AS IS* BASIS, WITHOUT WARRANTIES OR CONDITIONS OF ANY
KIND, EITHER EXPRESS OR IMPLIED, INCLUDING WITHOUT LIMITATION ANY IMPLIED
WARRANTIES OR CONDITIONS OF TITLE, FITNESS FOR A PARTICULAR PURPOSE,
MERCHANTABLITY OR NON-INFRINGEMENT.

See the Apache Version 2.0 License for specific language governing permissions
and limitations under the License.
***************************************************************************** */

/**!
 * Sortable 1.10.2
 * @author	RubaXa   <trash@rubaxa.org>
 * @author	owenm    <owen23355@gmail.com>
 * @license MIT
 */
