{
    "/js/app.js": "/js/app.js?id=bce1a754fe57936caaab",
    "/css/style.css": "/css/style.css?id=aef1d350722f44bb63b6",
    "/js/detail.060daa3a9ad38b49978b.js": "/js/detail.060daa3a9ad38b49978b.js?id=424d767a442cd7510a20",
    "/js/field.8495bc47b64315ced8b1.js": "/js/field.8495bc47b64315ced8b1.js?id=871a69e66885d70d3b88",
    "/js/filter.3eaa4cbf9599461b24f8.js": "/js/filter.3eaa4cbf9599461b24f8.js?id=c34365d6853ad3baa78b",
    "/js/form.c0239229ba1b595171ff.js": "/js/form.c0239229ba1b595171ff.js?id=ad8aa92c53bb6db3470f",
    "/js/index.064b48071462d443a709.js": "/js/index.064b48071462d443a709.js?id=55c109412be4af1cd768",
    "/js/loading.7cf240c03a8917e4e543.js": "/js/loading.7cf240c03a8917e4e543.js?id=5c39f91c64c49f7df6e1",
    "/js/modal.f99c1ab0f6299fdfa227.js": "/js/modal.f99c1ab0f6299fdfa227.js?id=990ade90a7dc10a1cca2",
    "/js/vendors~field.be6d7e9d6ab7ad5fc664.js": "/js/vendors~field.be6d7e9d6ab7ad5fc664.js?id=22894660d11821972a33"
}
